{
  "DBConn": {
    "HOST": "localhost",
    "USER": "reed",
    "PASSWORD": "hiAZWBG4D7sBTsm2",
    "DB": "reed",
    "dialect": "mysql",
    "logging": false,
    "pool": {
      "max": 5,
      "min": 0,
      "acquire": 30000,
      "idle": 10000
    }
  },
  "port": 5000,
  "jwtSecret": "'sl;jdvoaur;/lu;j9o7g-7gq0[9v,ckexmnzksbfliyujo",
  "baseURL": "http://localhost:3000"
}