{
  "DBConn": {
    "HOST": "localhost",
    "USER": "root",
    "PASSWORD": "passw0rd",
    "DB": "monster",
    "dialect": "mysql",
    "logging": true,
    "pool": {
      "max": 5,
      "min": 0,
      "acquire": 30000,
      "idle": 10000
    }
  },
  "port": 5000,
  "jwtSecret": "'sl;jdvoaur;/lu;j9o7g-7gq0[9v,ckexmnzksbfliyujo",
  "baseURL": "http://localhost:3000"
}
